
A90000FFFFFFFFFFFF000000000000
B0000000
A501
A502
A90406FFFFFFFFFFFFE92625287E88
A90407FFFFFFFFFFFF05E875B3D6BE
A9040BFFFFFFFFFFFF38EBE255DB82
A9040CFFFFFFFFFFFFCC2DB65CC85F
A9040DFFFFFFFFFFFF5408DFCBC976
A9040EFFFFFFFFFFFF7DFF6E78316F
A9040FFFFFFFFFFFFF04D800BF2F16
A90010FFFFFFFFFFFF27A240698FF7
A90011FFFFFFFFFFFF7B495F63FB21
A90012FFFFFFFFFFFF3146D4211C5E
A90413FFFFFFFFFFFF900C87D3CBE6
A90414FFFFFFFFFFFF8B5A4738D586
A90415FFFFFFFFFFFF287AC3971B9E
A90416FFFFFFFFFFFF97873D255F96
A90417FFFFFFFFFFFF03156EC00538
B0041727
A5FB
A5FC
A5FD
A5FE
A5FF
B0040717
A55C
A55D
A55E
B0041727
A5F3
A5F4
A5F7
A5F8
A5FA
B0040F1F
A57C
B0001222
A5A6
A5A7
A5A8
B0041323
A5B8
A5B9
B0041424
A5C8
A5C9
A5CA
A5CB
A5CC
A5CD
B0041525
A5D0
A5D1
A5D2
A5D3
A5D4
A5D5
A5D6
A5D7
A5DA
A5DB
B0041626
A5E0
A5E1
A5E4
A5E5
A5E6
A5E7
A5E8
A5E9